{
    "modules": [],
    "properties": {
        "backendModules": [],
        "description": "",
        "emConf": {
            "category": "plugin",
            "custom_category": "",
            "dependsOn": "typo3 => 9.5.0-9.5.99\n",
            "disableLocalization": false,
            "disableVersioning": false,
            "skipGenerateDocumentationTemplate": false,
            "sourceLanguage": "en",
            "state": "stable",
            "targetVersion": "9.5.0-9.5.99",
            "version": "9.5.0"
        },
        "extensionKey": "kitt3n_gridelements",
        "name": "kitt3n | gridelements",
        "originalExtensionKey": "",
        "originalVendorName": "",
        "persons": [
            {
                "company": "",
                "email": "o.merz@kitt3n.de",
                "name": "Oliver Merz",
                "role": "Developer"
            },
            {
                "company": "",
                "email": "g.kathan@kitt3n.de",
                "name": "Georg Kathan",
                "role": "Developer"
            },
            {
                "company": "",
                "email": "d.hilser@kitt3n.de",
                "name": "Dominik Hilser",
                "role": "Developer"
            },
            {
                "company": "ZWEI14 GmbH",
                "email": "hallo@ZWEI14.de",
                "name": "ZWEI14 GmbH",
                "role": "Product Manager"
            }
        ],
        "plugins": [],
        "vendorName": "KITT3N"
    },
    "wires": [],
    "log": {
        "last_modified": "2019-04-08 04:47",
        "extension_builder_version": "9.10.0",
        "be_user": " (3)"
    }
}